{
  "defaultSeverity": "error",
  "extends": [
    "tslint:recommended"
  ],
  "jsRules": {},
  "rules": {
    "trailing-comma": [
      false
    ],
    "no-console": false,
    "object-literal-sort-keys": false
  },
  "rulesDirectory": []
}